metaforr - 3 Results
…
df_summary <- df %>%
  group_by(license_group) %>%
  summarise(
    mean = mean(count),
    median = median(count),
    max = max(count)
  )

# order_max = df_summary %>% arrange(max) %>% pull(license_group)
# order_max
tmp = df_summary
tmp

# A tibble: 23 × 4
   license_group     mean  median      max
   <chr>            <dbl>   <dbl>    <int>
 1 ACM            686780. 686780.   929395
 2 AGPL            76907.  20068   3024235
 3 Apache         556795.  22530  49090177
 4 Artistic       408676.  31595  16782898
 5 BSD            932194.  35549  48433332
 6 BSL           4074162.  35714. 35430430
 7 CC              59651.  17570   3195237
 8 CPL            217894. 217894.   420555
 9 CeCILL          54435.  42575    253006
10 Common Public  973862. 973862.  1848911
# ℹ 13 more rows
…
